…
``` r
OutputPath = "ROI/"
customFun = function(Filt_To_DataTable) {
 write.table(Filt_To_DataTable, paste0(OutputPath, unique(Filt_To_DataTable$.id), "_Filt.txt"), quote = F, sep = "\t", row.names = F)
 return(Filt_To_DataTable)
 }
Filt_To_DataTable %>% 
  tibble::rownames_to_column(var = " ") %>%
  group_by(.id) %>% 
  do(customFun(.))
```

    ## # A tibble: 369,073 x 24
    ## # Groups:   .id [293]
    ##    ` `   .id   Label  Area  Mean StdDev  Mode   Min   Max Circ. Median    Ch
    ##    <chr> <chr> <chr> <dbl> <dbl>  <dbl> <int> <int> <int> <dbl>  <int> <int>
    ##  1 1     MD11~ MD11~ 5570.  90.7  100.      0     0   255 0.596     38     5
    ##  2 2     MD11~ MD11~ 1879. 141.    86.3   255     0   255 0.773    155     5
    ##  3 3     MD11~ MD11~  811.  88.0   83.7     5     0   255 0.898     51     5
    ##  4 4     MD11~ MD11~ 2501.  69.4   87.7     0     0   255 0.535     25     5
    ##  5 5     MD11~ MD11~ 3894.  86.2   91.9     0     0   255 0.765     38     5
    ##  6 6     MD11~ MD11~ 9464.  59.8   86.1     0     0   255 0.692      7     5
    ##  7 7     MD11~ MD11~ 1291. 143.    79.6   255     0   255 0.506    153     5
    ##  8 8     MD11~ MD11~ 3427.  70.7   90.5     0     0   255 0.578     20     5
    ##  9 9     MD11~ MD11~ 6550.  45.0   80.0     0     0   255 0.812      2     5
    ## 10 10    MD11~ MD11~ 6091.  54.0   90.1     0     0   255 0.798      2     5
    ## # ... with 369,063 more rows, and 12 more variables: AR <dbl>, Round <dbl>,
    ## #   Solidity <dbl>, Mean_boundary <dbl>, StdDev_boundary <dbl>,
    ## #   Mean_distance <dbl>, Included_SegQuality <dbl>, Included_Area <dbl>,
    ## #   Included_Circ <dbl>, Included_SeqQAreaCirc <dbl>, AreaScale <dbl>,
    ## #   AreaScale01 <dbl>
…
